^C:\USERS\DELL\DESKTOP\QUIXOREP\QUIXO\LOGGING\LOGGING.CPP
C:\USERS\DELL\DESKTOP\QUIXOREP\QUIXO\BIN\DEBUG\WIN32\VC141.PDB
C:\USERS\DELL\DESKTOP\QUIXOREP\QUIXO\BIN\DEBUG\WIN32\VC141.IDB
C:\USERS\DELL\DESKTOP\QUIXOREP\QUIXO\BIN\DEBUG\WIN32\LOGGING.OBJ
