^C:\USERS\DELL\DESKTOP\QUIXOREP\QUIXO\BIN\DEBUG\WIN32\LOGGING.OBJ
C:\USERS\DELL\DESKTOP\QUIXOREP\QUIXO\BIN\DEBUG\WIN32\LOGGING.ILK
C:\USERS\DELL\DESKTOP\QUIXOREP\QUIXO\BIN\DEBUG\WIN32\LOGGING.DLL
C:\USERS\DELL\DESKTOP\QUIXOREP\QUIXO\BIN\DEBUG\WIN32\LOGGING.PDB
