^C:\USERS\DELL\DESKTOP\QUIXOREP\QUIXO\QUIXOTESTS\X64\DEBUG\BOARDSTATECHECKERTESTS.OBJ|C:\USERS\DELL\DESKTOP\QUIXOREP\QUIXO\QUIXOTESTS\X64\DEBUG\BOARDTESTS.OBJ|C:\USERS\DELL\DESKTOP\QUIXOREP\QUIXO\QUIXOTESTS\X64\DEBUG\PIECETESTS.OBJ|C:\USERS\DELL\DESKTOP\QUIXOREP\QUIXO\QUIXOTESTS\X64\DEBUG\PLAYERTESTS.OBJ|C:\USERS\DELL\DESKTOP\QUIXOREP\QUIXO\QUIXOTESTS\X64\DEBUG\STDAFX.OBJ|C:\USERS\DELL\DESKTOP\QUIXOREP\QUIXO\X64\DEBUG\DLL.LIB
C:\USERS\DELL\DESKTOP\QUIXOREP\QUIXO\BIN\DEBUG\X64\PIECE.OBJ
C:\USERS\DELL\DESKTOP\QUIXOREP\QUIXO\BIN\DEBUG\X64\BOARD.OBJ
C:\USERS\DELL\DESKTOP\QUIXOREP\QUIXO\BIN\DEBUG\X64\PLAYER.OBJ
C:\USERS\DELL\DESKTOP\QUIXOREP\QUIXO\BIN\DEBUG\X64\BOARDSTATECHECKER.OBJ
C:\USERS\DELL\DESKTOP\QUIXOREP\QUIXO\BIN\DEBUG\X64\LOGGING.OBJ
C:\PROGRAM FILES (X86)\WINDOWS KITS\10\LIB\10.0.17134.0\UM\X64\KERNEL32.LIB
C:\PROGRAM FILES (X86)\WINDOWS KITS\10\LIB\10.0.17134.0\UM\X64\USER32.LIB
C:\PROGRAM FILES (X86)\WINDOWS KITS\10\LIB\10.0.17134.0\UM\X64\GDI32.LIB
C:\PROGRAM FILES (X86)\WINDOWS KITS\10\LIB\10.0.17134.0\UM\X64\WINSPOOL.LIB
C:\PROGRAM FILES (X86)\WINDOWS KITS\10\LIB\10.0.17134.0\UM\X64\COMDLG32.LIB
C:\PROGRAM FILES (X86)\WINDOWS KITS\10\LIB\10.0.17134.0\UM\X64\ADVAPI32.LIB
C:\PROGRAM FILES (X86)\WINDOWS KITS\10\LIB\10.0.17134.0\UM\X64\SHELL32.LIB
C:\PROGRAM FILES (X86)\WINDOWS KITS\10\LIB\10.0.17134.0\UM\X64\OLE32.LIB
C:\PROGRAM FILES (X86)\WINDOWS KITS\10\LIB\10.0.17134.0\UM\X64\OLEAUT32.LIB
C:\PROGRAM FILES (X86)\WINDOWS KITS\10\LIB\10.0.17134.0\UM\X64\UUID.LIB
C:\PROGRAM FILES (X86)\WINDOWS KITS\10\LIB\10.0.17134.0\UM\X64\ODBC32.LIB
C:\PROGRAM FILES (X86)\WINDOWS KITS\10\LIB\10.0.17134.0\UM\X64\ODBCCP32.LIB
C:\USERS\DELL\DESKTOP\QUIXOREP\QUIXO\QUIXOTESTS\X64\DEBUG\BOARDSTATECHECKERTESTS.OBJ
C:\USERS\DELL\DESKTOP\QUIXOREP\QUIXO\QUIXOTESTS\X64\DEBUG\BOARDTESTS.OBJ
C:\USERS\DELL\DESKTOP\QUIXOREP\QUIXO\QUIXOTESTS\X64\DEBUG\PIECETESTS.OBJ
C:\USERS\DELL\DESKTOP\QUIXOREP\QUIXO\QUIXOTESTS\X64\DEBUG\PLAYERTESTS.OBJ
C:\USERS\DELL\DESKTOP\QUIXOREP\QUIXO\QUIXOTESTS\X64\DEBUG\STDAFX.OBJ
C:\USERS\DELL\DESKTOP\QUIXOREP\QUIXO\X64\DEBUG\DLL.LIB
C:\WINDOWS\GLOBALIZATION\SORTING\SORTDEFAULT.NLS
C:\PROGRAM FILES (X86)\MICROSOFT VISUAL STUDIO\2017\COMMUNITY\VC\TOOLS\MSVC\14.15.26726\LIB\X64\MSVCPRTD.LIB
C:\PROGRAM FILES (X86)\MICROSOFT VISUAL STUDIO\2017\COMMUNITY\VC\TOOLS\MSVC\14.15.26726\LIB\X64\MSVCRTD.LIB
C:\PROGRAM FILES (X86)\MICROSOFT VISUAL STUDIO\2017\COMMUNITY\VC\TOOLS\MSVC\14.15.26726\LIB\X64\OLDNAMES.LIB
C:\PROGRAM FILES (X86)\MICROSOFT VISUAL STUDIO\2017\COMMUNITY\VC\AUXILIARY\VS\UNITTEST\LIB\X64\MICROSOFT.VISUALSTUDIO.TESTTOOLS.CPPUNITTESTFRAMEWORK.LIB
C:\PROGRAM FILES (X86)\MICROSOFT VISUAL STUDIO\2017\COMMUNITY\VC\TOOLS\MSVC\14.15.26726\LIB\X64\VCRUNTIMED.LIB
C:\PROGRAM FILES (X86)\WINDOWS KITS\10\LIB\10.0.17134.0\UCRT\X64\UCRTD.LIB
C:\WINDOWS\SYSTEM32\TZRES.DLL
C:\PROGRAM FILES (X86)\MICROSOFT VISUAL STUDIO\2017\COMMUNITY\VC\TOOLS\MSVC\14.15.26726\BIN\HOSTX86\X64\1033\LINKUI.DLL
C:\PROGRAM FILES (X86)\WINDOWS KITS\10\BIN\10.0.17134.0\X86\RC.EXE
C:\PROGRAM FILES (X86)\MICROSOFT VISUAL STUDIO\2017\COMMUNITY\VC\TOOLS\MSVC\14.15.26726\BIN\HOSTX86\X86\CVTRES.EXE
C:\PROGRAM FILES (X86)\MICROSOFT VISUAL STUDIO\2017\COMMUNITY\VC\TOOLS\MSVC\14.15.26726\BIN\HOSTX86\X64\VCTIP.EXE
