^C:\USERS\DELL\DESKTOP\QUIXOREP\QUIXO\QUIXO\BOARD.CPP|C:\USERS\DELL\DESKTOP\QUIXOREP\QUIXO\QUIXO\BOARDSTATECHECKER.CPP|C:\USERS\DELL\DESKTOP\QUIXOREP\QUIXO\QUIXO\PIECE.CPP|C:\USERS\DELL\DESKTOP\QUIXOREP\QUIXO\QUIXO\PLAYER.CPP|C:\USERS\DELL\DESKTOP\QUIXOREP\QUIXO\QUIXO\QUIXOGAME.CPP|C:\USERS\DELL\DESKTOP\QUIXOREP\QUIXO\QUIXO\SOURCE.CPP
C:\USERS\DELL\DESKTOP\QUIXOREP\QUIXO\QUIXO\DEBUG\VC141.PDB
C:\USERS\DELL\DESKTOP\QUIXOREP\QUIXO\QUIXO\DEBUG\VC141.IDB
C:\USERS\DELL\DESKTOP\QUIXOREP\QUIXO\QUIXO\DEBUG\SOURCE.OBJ
C:\USERS\DELL\DESKTOP\QUIXOREP\QUIXO\QUIXO\DEBUG\QUIXOGAME.OBJ
C:\USERS\DELL\DESKTOP\QUIXOREP\QUIXO\QUIXO\DEBUG\PLAYER.OBJ
C:\USERS\DELL\DESKTOP\QUIXOREP\QUIXO\QUIXO\DEBUG\PIECE.OBJ
C:\USERS\DELL\DESKTOP\QUIXOREP\QUIXO\QUIXO\DEBUG\BOARD.OBJ
^C:\USERS\DELL\DESKTOP\QUIXOREP\QUIXO\QUIXO\BOARD.CPP
C:\USERS\DELL\DESKTOP\QUIXOREP\QUIXO\QUIXO\DEBUG\BOARD.OBJ
^C:\USERS\DELL\DESKTOP\QUIXOREP\QUIXO\QUIXO\PIECE.CPP
C:\USERS\DELL\DESKTOP\QUIXOREP\QUIXO\QUIXO\DEBUG\PIECE.OBJ
^C:\USERS\DELL\DESKTOP\QUIXOREP\QUIXO\QUIXO\QUIXOGAME.CPP
C:\USERS\DELL\DESKTOP\QUIXOREP\QUIXO\QUIXO\DEBUG\QUIXOGAME.OBJ
^C:\USERS\DELL\DESKTOP\QUIXOREP\QUIXO\QUIXO\SOURCE.CPP
C:\USERS\DELL\DESKTOP\QUIXOREP\QUIXO\QUIXO\DEBUG\SOURCE.OBJ
^C:\USERS\DELL\DESKTOP\QUIXOREP\QUIXO\QUIXO\BOARDSTATECHECKER.CPP|C:\USERS\DELL\DESKTOP\QUIXOREP\QUIXO\QUIXO\PLAYER.CPP
C:\USERS\DELL\DESKTOP\QUIXOREP\QUIXO\QUIXO\DEBUG\VC141.PDB
C:\USERS\DELL\DESKTOP\QUIXOREP\QUIXO\QUIXO\DEBUG\VC141.IDB
C:\USERS\DELL\DESKTOP\QUIXOREP\QUIXO\QUIXO\DEBUG\PLAYER.OBJ
^C:\USERS\DELL\DESKTOP\QUIXOREP\QUIXO\QUIXO\PLAYER.CPP
C:\USERS\DELL\DESKTOP\QUIXOREP\QUIXO\QUIXO\DEBUG\VC141.PDB
C:\USERS\DELL\DESKTOP\QUIXOREP\QUIXO\QUIXO\DEBUG\VC141.IDB
C:\USERS\DELL\DESKTOP\QUIXOREP\QUIXO\QUIXO\DEBUG\PLAYER.OBJ
^C:\USERS\DELL\DESKTOP\QUIXOREP\QUIXO\QUIXO\BOARDSTATECHECKER.CPP
C:\USERS\DELL\DESKTOP\QUIXOREP\QUIXO\QUIXO\DEBUG\VC141.PDB
C:\USERS\DELL\DESKTOP\QUIXOREP\QUIXO\QUIXO\DEBUG\VC141.IDB
C:\USERS\DELL\DESKTOP\QUIXOREP\QUIXO\QUIXO\DEBUG\BOARDSTATECHECKER.OBJ
