^C:\USERS\DELL\DESKTOP\QUIXOREP\QUIXO\QUIXOTESTS\STDAFX.CPP
/c /I"C:\PROGRAM FILES (X86)\MICROSOFT VISUAL STUDIO\2017\COMMUNITY\VC\UNITTEST\INCLUDE" /IC:\USERS\DELL\DESKTOP\QUIXOREP\QUIXO\QUIXO\ /ZI /JMC /nologo /W3 /WX- /diagnostics:classic /Od /Oy- /D WIN32 /D _DEBUG /D _WINDLL /D _UNICODE /D UNICODE /Gm- /EHsc /RTC1 /MDd /GS /fp:precise /Zc:wchar_t /Zc:forScope /Zc:inline /std:c++17 /Yc"stdafx.h" /Fp"DEBUG\QUIXOTESTS.PCH" /Fo"DEBUG\\" /Fd"DEBUG\VC141.PDB" /Gd /TP /analyze- /FC C:\USERS\DELL\DESKTOP\QUIXOREP\QUIXO\QUIXOTESTS\STDAFX.CPP
^C:\USERS\DELL\DESKTOP\QUIXOREP\QUIXO\QUIXOTESTS\PIECETESTS.CPP
/c /I"C:\PROGRAM FILES (X86)\MICROSOFT VISUAL STUDIO\2017\COMMUNITY\VC\UNITTEST\INCLUDE" /IC:\USERS\DELL\DESKTOP\QUIXOREP\QUIXO\QUIXO\ /ZI /JMC /nologo /W3 /WX- /diagnostics:classic /Od /Oy- /D WIN32 /D _DEBUG /D _WINDLL /D _UNICODE /D UNICODE /Gm- /EHsc /RTC1 /MDd /GS /fp:precise /Zc:wchar_t /Zc:forScope /Zc:inline /std:c++17 /Yu"stdafx.h" /Fp"DEBUG\QUIXOTESTS.PCH" /Fo"DEBUG\\" /Fd"DEBUG\VC141.PDB" /Gd /TP /analyze- /FC C:\USERS\DELL\DESKTOP\QUIXOREP\QUIXO\QUIXOTESTS\PIECETESTS.CPP
^C:\USERS\DELL\DESKTOP\QUIXOREP\QUIXO\QUIXOTESTS\BOARDSTATECHECKERTESTS.CPP
/c /I"C:\PROGRAM FILES (X86)\MICROSOFT VISUAL STUDIO\2017\COMMUNITY\VC\UNITTEST\INCLUDE" /IC:\USERS\DELL\DESKTOP\QUIXOREP\QUIXO\QUIXO\ /ZI /JMC /nologo /W3 /WX- /diagnostics:classic /Od /Oy- /D WIN32 /D _DEBUG /D _WINDLL /D _UNICODE /D UNICODE /Gm- /EHsc /RTC1 /MDd /GS /fp:precise /Zc:wchar_t /Zc:forScope /Zc:inline /std:c++17 /Yu"stdafx.h" /Fp"DEBUG\QUIXOTESTS.PCH" /Fo"DEBUG\\" /Fd"DEBUG\VC141.PDB" /Gd /TP /analyze- /FC C:\USERS\DELL\DESKTOP\QUIXOREP\QUIXO\QUIXOTESTS\BOARDSTATECHECKERTESTS.CPP
^C:\USERS\DELL\DESKTOP\QUIXOREP\QUIXO\QUIXOTESTS\BOARDTESTS.CPP
/c /I"C:\PROGRAM FILES (X86)\MICROSOFT VISUAL STUDIO\2017\COMMUNITY\VC\UNITTEST\INCLUDE" /IC:\USERS\DELL\DESKTOP\QUIXOREP\QUIXO\QUIXO\ /ZI /JMC /nologo /W3 /WX- /diagnostics:classic /Od /Oy- /D WIN32 /D _DEBUG /D _WINDLL /D _UNICODE /D UNICODE /Gm- /EHsc /RTC1 /MDd /GS /fp:precise /Zc:wchar_t /Zc:forScope /Zc:inline /std:c++17 /Yu"stdafx.h" /Fp"DEBUG\QUIXOTESTS.PCH" /Fo"DEBUG\\" /Fd"DEBUG\VC141.PDB" /Gd /TP /analyze- /FC C:\USERS\DELL\DESKTOP\QUIXOREP\QUIXO\QUIXOTESTS\BOARDTESTS.CPP
^C:\USERS\DELL\DESKTOP\QUIXOREP\QUIXO\QUIXOTESTS\PLAYERTESTS.CPP
/c /I"C:\PROGRAM FILES (X86)\MICROSOFT VISUAL STUDIO\2017\COMMUNITY\VC\UNITTEST\INCLUDE" /IC:\USERS\DELL\DESKTOP\QUIXOREP\QUIXO\QUIXO\ /ZI /JMC /nologo /W3 /WX- /diagnostics:classic /Od /Oy- /D WIN32 /D _DEBUG /D _WINDLL /D _UNICODE /D UNICODE /Gm- /EHsc /RTC1 /MDd /GS /fp:precise /Zc:wchar_t /Zc:forScope /Zc:inline /std:c++17 /Yu"stdafx.h" /Fp"DEBUG\QUIXOTESTS.PCH" /Fo"DEBUG\\" /Fd"DEBUG\VC141.PDB" /Gd /TP /analyze- /FC C:\USERS\DELL\DESKTOP\QUIXOREP\QUIXO\QUIXOTESTS\PLAYERTESTS.CPP
