^C:\USERS\IULIA\DESKTOP\FACULTATE\AN2 SEM1\EMC\QUIXOREP\QUIXO\LOGGING\LOGGING.CPP
/c /ZI /JMC /nologo /W3 /WX- /diagnostics:classic /sdl /Od /Oy- /D WIN32 /D _DEBUG /D LOGGING_EXPORTS /D _WINDOWS /D _USRDLL /D _WINDLL /D _UNICODE /D UNICODE /Gm- /EHsc /RTC1 /MDd /GS /fp:precise /permissive- /Zc:wchar_t /Zc:forScope /Zc:inline /Fo"DEBUG\\" /Fd"DEBUG\VC141.PDB" /Gd /TP /analyze- /FC C:\USERS\IULIA\DESKTOP\FACULTATE\AN2 SEM1\EMC\QUIXOREP\QUIXO\LOGGING\LOGGING.CPP
^C:\USERS\DELL\DESKTOP\QUIXOREP\QUIXO\LOGGING\LOGGING.CPP
/c /ZI /JMC /nologo /W3 /WX- /diagnostics:classic /sdl /Od /Oy- /D WIN32 /D _DEBUG /D LOGGING_EXPORTS /D _WINDOWS /D _USRDLL /D _WINDLL /D _UNICODE /D UNICODE /Gm- /EHsc /RTC1 /MDd /GS /fp:precise /permissive- /Zc:wchar_t /Zc:forScope /Zc:inline /Fo"DEBUG\\" /Fd"DEBUG\VC141.PDB" /Gd /TP /analyze- /FC C:\USERS\DELL\DESKTOP\QUIXOREP\QUIXO\LOGGING\LOGGING.CPP
